{
    "paths": [
        {
            "name": "/users",
            "lambdaFunction": "usersFunction",
            "privacy": {
                "protected": true,
                "auth": [
                    "/POST",
                    "/GET",
                    "/PUT",
                    "/PATCH",
                    "/DELETE"
                ],
                "unauth": [
                    "/POST",
                    "/GET",
                    "/PUT",
                    "/PATCH",
                    "/DELETE"
                ]
            },
            "policyResourceName": "/users"
        }
    ],
    "resourceName": "usersAPI",
    "apiName": "usersAPI",
    "functionArns": [
        {
            "lambdaFunction": "usersFunction"
        }
    ],
    "privacy": {
        "auth": 1,
        "unauth": 1,
        "authRoleName": "amplify-awsdemo-dev-232236-authRole",
        "unAuthRoleName": "amplify-awsdemo-dev-232236-unauthRole"
    },
    "dependsOn": [
        {
            "category": "function",
            "resourceName": "usersFunction",
            "attributes": [
                "Name",
                "Arn"
            ]
        }
    ]
}